{
    "python.linting.pylintEnabled": false,
    "python.linting.flake8Enabled": true,
    "python.linting.pydocstyleEnabled": false,
    "python.linting.pycodestyleEnabled": false,
    "python.formatting.provider": "black",
    "python.formatting.blackPath": "${workspaceFolder}/venv/bin/black",
    "python.testing.pytestEnabled": true
}
